{
  "extract_dir": "",
  "hash": "ad9cb3094abf9a93d4b53447e8000fa13f2dfcad",
  "log_url": "https://storage.googleapis.com/nativeclient-once/log/binutils_i686_w64_mingw32_a1a1bc058210d343aa9e31455658df596fcdeaed.log",
  "name": "binutils_i686_w64_mingw32.tgz",
  "tar_src_dir": "",
  "url": "https://storage.googleapis.com/nativeclient-once/object/binutils_i686_w64_mingw32_a1a1bc058210d343aa9e31455658df596fcdeaed.tgz"
}