{
  "extract_dir": "",
  "hash": "08fa1b5ec915100cb57fa06fa839f3d6427a5ded",
  "log_url": "https://storage.googleapis.com/nativeclient-once/log/core_sdk_libs_le32_2f086c51e5769760c86b4e852438221afc863018.log",
  "name": "core_sdk_libs_le32.tgz",
  "tar_src_dir": "",
  "url": "https://storage.googleapis.com/nativeclient-once/object/core_sdk_libs_le32_2f086c51e5769760c86b4e852438221afc863018.tgz"
}