{
  "extract_dir": "",
  "hash": "bbae03403dda8747c626406e66a6207fb3a37922",
  "log_url": "https://storage.googleapis.com/nativeclient-once/log/core_sdk_libs_i686_41b8768c99edfa543232f56e455e1d4c81b355b3.log",
  "name": "core_sdk_libs_i686.tgz",
  "tar_src_dir": "",
  "url": "https://storage.googleapis.com/nativeclient-once/object/core_sdk_libs_i686_41b8768c99edfa543232f56e455e1d4c81b355b3.tgz"
}