{
  "extract_dir": "",
  "hash": "a27f3ab7cc2b1ca9b07ef79b959e2297a51f4e57",
  "log_url": "https://storage.googleapis.com/nativeclient-once/log/libs_support_arm_bc_f1e64a7acab4e91d061cb111a1811e3ab1570dd0.log",
  "name": "libs_support_arm_bc.tgz",
  "tar_src_dir": "",
  "url": "https://storage.googleapis.com/nativeclient-once/object/libs_support_arm_bc_f1e64a7acab4e91d061cb111a1811e3ab1570dd0.tgz"
}