{
  "extract_dir": "",
  "hash": "b1ce0610cb74a935c9c0e37827ab824df3dac5d7",
  "log_url": "https://storage.googleapis.com/nativeclient-once/log/libs_support_translator_x86_32_270be6a605f07e051e645d1af63fe2dd7b32543a.log",
  "name": "libs_support_translator_x86_32.tgz",
  "tar_src_dir": "",
  "url": "https://storage.googleapis.com/nativeclient-once/object/libs_support_translator_x86_32_270be6a605f07e051e645d1af63fe2dd7b32543a.tgz"
}