{
  "extract_dir": "",
  "hash": "18a1014fabae7c79b00fd25b84d9fabd8bfb3f86",
  "log_url": "https://storage.googleapis.com/nativeclient-once/log/gcc_libs_arm_f03817560852cd9d4b167200c5b678a1387d40b3.log",
  "name": "gcc_libs_arm.tgz",
  "tar_src_dir": "",
  "url": "https://storage.googleapis.com/nativeclient-once/object/gcc_libs_arm_f03817560852cd9d4b167200c5b678a1387d40b3.tgz"
}